
libclient_crypt.so:     file format elf64-x86-64

Contents of the .eh_frame section:

00000000 0000000000000014 00000000 CIE
  Version:               1
  Augmentation:          "zR"
  Code alignment factor: 1
  Data alignment factor: -8
  Return address column: 16
  Augmentation data:     1b

  DW_CFA_def_cfa: r7 (rsp) ofs 8
  DW_CFA_offset: r16 (rip) at cfa-8
  DW_CFA_nop
  DW_CFA_nop

00000018 0000000000000024 0000001c FDE cie=00000000 pc=0000000000000c40..0000000000000dc0
  DW_CFA_def_cfa_offset: 16
  DW_CFA_advance_loc: 6 to 0000000000000c46
  DW_CFA_def_cfa_offset: 24
  DW_CFA_advance_loc: 10 to 0000000000000c50
  DW_CFA_def_cfa_expression (DW_OP_breg7 (rsp): 8; DW_OP_breg16 (rip): 0; DW_OP_lit15; DW_OP_and; DW_OP_lit11; DW_OP_ge; DW_OP_lit3; DW_OP_shl; DW_OP_plus)
  DW_CFA_nop
  DW_CFA_nop
  DW_CFA_nop
  DW_CFA_nop

00000040 000000000000002c 00000044 FDE cie=00000000 pc=0000000000000ed0..00000000000010d7
  DW_CFA_advance_loc: 14 to 0000000000000ede
  DW_CFA_def_cfa_offset: 16
  DW_CFA_offset: r12 (r12) at cfa-16
  DW_CFA_advance_loc: 1 to 0000000000000edf
  DW_CFA_def_cfa_offset: 24
  DW_CFA_offset: r6 (rbp) at cfa-24
  DW_CFA_advance_loc: 1 to 0000000000000ee0
  DW_CFA_def_cfa_offset: 32
  DW_CFA_offset: r3 (rbx) at cfa-32
  DW_CFA_advance_loc2: 490 to 00000000000010ca
  DW_CFA_remember_state
  DW_CFA_def_cfa_offset: 24
  DW_CFA_advance_loc: 1 to 00000000000010cb
  DW_CFA_def_cfa_offset: 16
  DW_CFA_advance_loc: 2 to 00000000000010cd
  DW_CFA_def_cfa_offset: 8
  DW_CFA_advance_loc: 1 to 00000000000010ce
  DW_CFA_restore_state
  DW_CFA_nop
  DW_CFA_nop

00000070 0000000000000014 00000074 FDE cie=00000000 pc=00000000000010e0..00000000000010f9
  DW_CFA_nop
  DW_CFA_nop
  DW_CFA_nop
  DW_CFA_nop
  DW_CFA_nop
  DW_CFA_nop
  DW_CFA_nop

00000088 000000000000005c 0000008c FDE cie=00000000 pc=0000000000001100..00000000000013bb
  DW_CFA_advance_loc1: 87 to 0000000000001157
  DW_CFA_def_cfa_offset: 16
  DW_CFA_offset: r15 (r15) at cfa-16
  DW_CFA_advance_loc: 2 to 0000000000001159
  DW_CFA_def_cfa_offset: 24
  DW_CFA_offset: r14 (r14) at cfa-24
  DW_CFA_advance_loc: 2 to 000000000000115b
  DW_CFA_def_cfa_offset: 32
  DW_CFA_offset: r13 (r13) at cfa-32
  DW_CFA_advance_loc: 2 to 000000000000115d
  DW_CFA_def_cfa_offset: 40
  DW_CFA_offset: r12 (r12) at cfa-40
  DW_CFA_advance_loc: 5 to 0000000000001162
  DW_CFA_def_cfa_offset: 48
  DW_CFA_offset: r6 (rbp) at cfa-48
  DW_CFA_advance_loc: 1 to 0000000000001163
  DW_CFA_def_cfa_offset: 56
  DW_CFA_offset: r3 (rbx) at cfa-56
  DW_CFA_advance_loc: 4 to 0000000000001167
  DW_CFA_def_cfa_offset: 112
  DW_CFA_advance_loc2: 572 to 00000000000013a3
  DW_CFA_def_cfa_offset: 56
  DW_CFA_advance_loc: 1 to 00000000000013a4
  DW_CFA_restore: r3 (rbx)
  DW_CFA_def_cfa_offset: 48
  DW_CFA_advance_loc: 1 to 00000000000013a5
  DW_CFA_restore: r6 (rbp)
  DW_CFA_def_cfa_offset: 40
  DW_CFA_advance_loc: 2 to 00000000000013a7
  DW_CFA_restore: r12 (r12)
  DW_CFA_def_cfa_offset: 32
  DW_CFA_advance_loc: 2 to 00000000000013a9
  DW_CFA_restore: r13 (r13)
  DW_CFA_def_cfa_offset: 24
  DW_CFA_advance_loc: 2 to 00000000000013ab
  DW_CFA_restore: r14 (r14)
  DW_CFA_def_cfa_offset: 16
  DW_CFA_advance_loc: 2 to 00000000000013ad
  DW_CFA_restore: r15 (r15)
  DW_CFA_def_cfa_offset: 8
  DW_CFA_advance_loc: 3 to 00000000000013b0
  DW_CFA_def_cfa_offset: 112
  DW_CFA_offset: r3 (rbx) at cfa-56
  DW_CFA_offset: r6 (rbp) at cfa-48
  DW_CFA_offset: r12 (r12) at cfa-40
  DW_CFA_offset: r13 (r13) at cfa-32
  DW_CFA_offset: r14 (r14) at cfa-24
  DW_CFA_offset: r15 (r15) at cfa-16
  DW_CFA_nop

000000e8 0000000000000044 000000ec FDE cie=00000000 pc=00000000000013c0..0000000000001532
  DW_CFA_advance_loc: 2 to 00000000000013c2
  DW_CFA_def_cfa_offset: 16
  DW_CFA_offset: r14 (r14) at cfa-16
  DW_CFA_advance_loc: 2 to 00000000000013c4
  DW_CFA_def_cfa_offset: 24
  DW_CFA_offset: r13 (r13) at cfa-24
  DW_CFA_advance_loc: 4 to 00000000000013c8
  DW_CFA_def_cfa_offset: 32
  DW_CFA_offset: r12 (r12) at cfa-32
  DW_CFA_advance_loc: 1 to 00000000000013c9
  DW_CFA_def_cfa_offset: 40
  DW_CFA_offset: r6 (rbp) at cfa-40
  DW_CFA_advance_loc: 5 to 00000000000013ce
  DW_CFA_def_cfa_offset: 48
  DW_CFA_offset: r3 (rbx) at cfa-48
  DW_CFA_advance_loc: 12 to 00000000000013da
  DW_CFA_def_cfa_offset: 96
  DW_CFA_advance_loc1: 208 to 00000000000014aa
  DW_CFA_remember_state
  DW_CFA_def_cfa_offset: 48
  DW_CFA_advance_loc: 1 to 00000000000014ab
  DW_CFA_def_cfa_offset: 40
  DW_CFA_advance_loc: 1 to 00000000000014ac
  DW_CFA_def_cfa_offset: 32
  DW_CFA_advance_loc: 2 to 00000000000014ae
  DW_CFA_def_cfa_offset: 24
  DW_CFA_advance_loc: 2 to 00000000000014b0
  DW_CFA_def_cfa_offset: 16
  DW_CFA_advance_loc: 2 to 00000000000014b2
  DW_CFA_def_cfa_offset: 8
  DW_CFA_advance_loc: 6 to 00000000000014b8
  DW_CFA_restore_state
  DW_CFA_nop
  DW_CFA_nop
  DW_CFA_nop
  DW_CFA_nop
  DW_CFA_nop

00000130 0000000000000044 00000134 FDE cie=00000000 pc=0000000000001540..00000000000016d2
  DW_CFA_advance_loc: 2 to 0000000000001542
  DW_CFA_def_cfa_offset: 16
  DW_CFA_offset: r14 (r14) at cfa-16
  DW_CFA_advance_loc: 2 to 0000000000001544
  DW_CFA_def_cfa_offset: 24
  DW_CFA_offset: r13 (r13) at cfa-24
  DW_CFA_advance_loc: 5 to 0000000000001549
  DW_CFA_def_cfa_offset: 32
  DW_CFA_offset: r12 (r12) at cfa-32
  DW_CFA_advance_loc: 1 to 000000000000154a
  DW_CFA_def_cfa_offset: 40
  DW_CFA_offset: r6 (rbp) at cfa-40
  DW_CFA_advance_loc: 4 to 000000000000154e
  DW_CFA_def_cfa_offset: 48
  DW_CFA_offset: r3 (rbx) at cfa-48
  DW_CFA_advance_loc: 13 to 000000000000155b
  DW_CFA_def_cfa_offset: 96
  DW_CFA_advance_loc1: 228 to 000000000000163f
  DW_CFA_remember_state
  DW_CFA_def_cfa_offset: 48
  DW_CFA_advance_loc: 1 to 0000000000001640
  DW_CFA_def_cfa_offset: 40
  DW_CFA_advance_loc: 1 to 0000000000001641
  DW_CFA_def_cfa_offset: 32
  DW_CFA_advance_loc: 2 to 0000000000001643
  DW_CFA_def_cfa_offset: 24
  DW_CFA_advance_loc: 2 to 0000000000001645
  DW_CFA_def_cfa_offset: 16
  DW_CFA_advance_loc: 2 to 0000000000001647
  DW_CFA_def_cfa_offset: 8
  DW_CFA_advance_loc: 9 to 0000000000001650
  DW_CFA_restore_state
  DW_CFA_nop
  DW_CFA_nop
  DW_CFA_nop
  DW_CFA_nop
  DW_CFA_nop

00000178 000000000000002c 0000017c FDE cie=00000000 pc=00000000000016e0..0000000000001707
  DW_CFA_advance_loc: 2 to 00000000000016e2
  DW_CFA_def_cfa_offset: 16
  DW_CFA_offset: r12 (r12) at cfa-16
  DW_CFA_advance_loc: 1 to 00000000000016e3
  DW_CFA_def_cfa_offset: 24
  DW_CFA_offset: r6 (rbp) at cfa-24
  DW_CFA_advance_loc: 4 to 00000000000016e7
  DW_CFA_def_cfa_offset: 32
  DW_CFA_offset: r3 (rbx) at cfa-32
  DW_CFA_advance_loc: 22 to 00000000000016fd
  DW_CFA_def_cfa_offset: 24
  DW_CFA_advance_loc: 1 to 00000000000016fe
  DW_CFA_def_cfa_offset: 16
  DW_CFA_advance_loc: 2 to 0000000000001700
  DW_CFA_def_cfa_offset: 8
  DW_CFA_nop
  DW_CFA_nop
  DW_CFA_nop
  DW_CFA_nop
  DW_CFA_nop
  DW_CFA_nop
  DW_CFA_nop

000001a8 000000000000004c 000001ac FDE cie=00000000 pc=0000000000001710..0000000000001922
  DW_CFA_advance_loc: 2 to 0000000000001712
  DW_CFA_def_cfa_offset: 16
  DW_CFA_offset: r15 (r15) at cfa-16
  DW_CFA_advance_loc: 2 to 0000000000001714
  DW_CFA_def_cfa_offset: 24
  DW_CFA_offset: r14 (r14) at cfa-24
  DW_CFA_advance_loc: 5 to 0000000000001719
  DW_CFA_def_cfa_offset: 32
  DW_CFA_offset: r13 (r13) at cfa-32
  DW_CFA_advance_loc: 2 to 000000000000171b
  DW_CFA_def_cfa_offset: 40
  DW_CFA_offset: r12 (r12) at cfa-40
  DW_CFA_advance_loc: 1 to 000000000000171c
  DW_CFA_def_cfa_offset: 48
  DW_CFA_offset: r6 (rbp) at cfa-48
  DW_CFA_advance_loc: 1 to 000000000000171d
  DW_CFA_def_cfa_offset: 56
  DW_CFA_offset: r3 (rbx) at cfa-56
  DW_CFA_advance_loc: 6 to 0000000000001723
  DW_CFA_def_cfa_offset: 144
  DW_CFA_advance_loc2: 290 to 0000000000001845
  DW_CFA_remember_state
  DW_CFA_def_cfa_offset: 56
  DW_CFA_advance_loc: 1 to 0000000000001846
  DW_CFA_def_cfa_offset: 48
  DW_CFA_advance_loc: 1 to 0000000000001847
  DW_CFA_def_cfa_offset: 40
  DW_CFA_advance_loc: 2 to 0000000000001849
  DW_CFA_def_cfa_offset: 32
  DW_CFA_advance_loc: 2 to 000000000000184b
  DW_CFA_def_cfa_offset: 24
  DW_CFA_advance_loc: 2 to 000000000000184d
  DW_CFA_def_cfa_offset: 16
  DW_CFA_advance_loc: 2 to 000000000000184f
  DW_CFA_def_cfa_offset: 8
  DW_CFA_advance_loc: 1 to 0000000000001850
  DW_CFA_restore_state
  DW_CFA_nop
  DW_CFA_nop
  DW_CFA_nop

000001f8 000000000000001c 000001fc FDE cie=00000000 pc=0000000000001930..0000000000001a3c
  DW_CFA_advance_loc: 4 to 0000000000001934
  DW_CFA_def_cfa_offset: 64
  DW_CFA_advance_loc1: 246 to 0000000000001a2a
  DW_CFA_remember_state
  DW_CFA_def_cfa_offset: 8
  DW_CFA_advance_loc: 6 to 0000000000001a30
  DW_CFA_restore_state
  DW_CFA_nop
  DW_CFA_nop
  DW_CFA_nop
  DW_CFA_nop
  DW_CFA_nop

00000218 000000000000005c 0000021c FDE cie=00000000 pc=0000000000001a40..0000000000001c84
  DW_CFA_advance_loc: 2 to 0000000000001a42
  DW_CFA_def_cfa_offset: 16
  DW_CFA_offset: r15 (r15) at cfa-16
  DW_CFA_advance_loc: 2 to 0000000000001a44
  DW_CFA_def_cfa_offset: 24
  DW_CFA_offset: r14 (r14) at cfa-24
  DW_CFA_advance_loc: 5 to 0000000000001a49
  DW_CFA_def_cfa_offset: 32
  DW_CFA_offset: r13 (r13) at cfa-32
  DW_CFA_advance_loc: 2 to 0000000000001a4b
  DW_CFA_def_cfa_offset: 40
  DW_CFA_offset: r12 (r12) at cfa-40
  DW_CFA_advance_loc: 4 to 0000000000001a4f
  DW_CFA_def_cfa_offset: 48
  DW_CFA_offset: r6 (rbp) at cfa-48
  DW_CFA_advance_loc: 1 to 0000000000001a50
  DW_CFA_def_cfa_offset: 56
  DW_CFA_offset: r3 (rbx) at cfa-56
  DW_CFA_advance_loc: 12 to 0000000000001a5c
  DW_CFA_def_cfa_offset: 208
  DW_CFA_advance_loc2: 303 to 0000000000001b8b
  DW_CFA_remember_state
  DW_CFA_def_cfa_offset: 56
  DW_CFA_advance_loc: 1 to 0000000000001b8c
  DW_CFA_def_cfa_offset: 48
  DW_CFA_advance_loc: 1 to 0000000000001b8d
  DW_CFA_def_cfa_offset: 40
  DW_CFA_advance_loc: 2 to 0000000000001b8f
  DW_CFA_def_cfa_offset: 32
  DW_CFA_advance_loc: 2 to 0000000000001b91
  DW_CFA_def_cfa_offset: 24
  DW_CFA_advance_loc: 2 to 0000000000001b93
  DW_CFA_def_cfa_offset: 16
  DW_CFA_advance_loc: 2 to 0000000000001b95
  DW_CFA_def_cfa_offset: 8
  DW_CFA_advance_loc: 11 to 0000000000001ba0
  DW_CFA_restore_state
  DW_CFA_advance_loc1: 92 to 0000000000001bfc
  DW_CFA_def_cfa_offset: 216
  DW_CFA_advance_loc: 21 to 0000000000001c11
  DW_CFA_def_cfa_offset: 224
  DW_CFA_advance_loc: 17 to 0000000000001c22
  DW_CFA_def_cfa_offset: 216
  DW_CFA_advance_loc: 1 to 0000000000001c23
  DW_CFA_def_cfa_offset: 208
  DW_CFA_nop
  DW_CFA_nop

00000278 000000000000005c 0000027c FDE cie=00000000 pc=0000000000001c90..0000000000001df0
  DW_CFA_advance_loc: 2 to 0000000000001c92
  DW_CFA_def_cfa_offset: 16
  DW_CFA_offset: r15 (r15) at cfa-16
  DW_CFA_advance_loc: 2 to 0000000000001c94
  DW_CFA_def_cfa_offset: 24
  DW_CFA_offset: r14 (r14) at cfa-24
  DW_CFA_advance_loc: 2 to 0000000000001c96
  DW_CFA_def_cfa_offset: 32
  DW_CFA_offset: r13 (r13) at cfa-32
  DW_CFA_advance_loc: 2 to 0000000000001c98
  DW_CFA_def_cfa_offset: 40
  DW_CFA_offset: r12 (r12) at cfa-40
  DW_CFA_advance_loc: 1 to 0000000000001c99
  DW_CFA_def_cfa_offset: 48
  DW_CFA_offset: r6 (rbp) at cfa-48
  DW_CFA_advance_loc: 1 to 0000000000001c9a
  DW_CFA_def_cfa_offset: 56
  DW_CFA_offset: r3 (rbx) at cfa-56
  DW_CFA_advance_loc: 4 to 0000000000001c9e
  DW_CFA_def_cfa_offset: 176
  DW_CFA_advance_loc1: 206 to 0000000000001d6c
  DW_CFA_def_cfa_offset: 184
  DW_CFA_advance_loc: 21 to 0000000000001d81
  DW_CFA_def_cfa_offset: 192
  DW_CFA_advance_loc: 12 to 0000000000001d8d
  DW_CFA_def_cfa_offset: 184
  DW_CFA_advance_loc: 1 to 0000000000001d8e
  DW_CFA_def_cfa_offset: 176
  DW_CFA_advance_loc: 43 to 0000000000001db9
  DW_CFA_remember_state
  DW_CFA_def_cfa_offset: 56
  DW_CFA_advance_loc: 1 to 0000000000001dba
  DW_CFA_def_cfa_offset: 48
  DW_CFA_advance_loc: 1 to 0000000000001dbb
  DW_CFA_def_cfa_offset: 40
  DW_CFA_advance_loc: 2 to 0000000000001dbd
  DW_CFA_def_cfa_offset: 32
  DW_CFA_advance_loc: 2 to 0000000000001dbf
  DW_CFA_def_cfa_offset: 24
  DW_CFA_advance_loc: 2 to 0000000000001dc1
  DW_CFA_def_cfa_offset: 16
  DW_CFA_advance_loc: 2 to 0000000000001dc3
  DW_CFA_def_cfa_offset: 8
  DW_CFA_advance_loc: 5 to 0000000000001dc8
  DW_CFA_restore_state
  DW_CFA_nop
  DW_CFA_nop
  DW_CFA_nop
  DW_CFA_nop

000002d8 000000000000005c 000002dc FDE cie=00000000 pc=0000000000001df0..000000000000203f
  DW_CFA_advance_loc: 2 to 0000000000001df2
  DW_CFA_def_cfa_offset: 16
  DW_CFA_offset: r15 (r15) at cfa-16
  DW_CFA_advance_loc: 2 to 0000000000001df4
  DW_CFA_def_cfa_offset: 24
  DW_CFA_offset: r14 (r14) at cfa-24
  DW_CFA_advance_loc: 2 to 0000000000001df6
  DW_CFA_def_cfa_offset: 32
  DW_CFA_offset: r13 (r13) at cfa-32
  DW_CFA_advance_loc: 2 to 0000000000001df8
  DW_CFA_def_cfa_offset: 40
  DW_CFA_offset: r12 (r12) at cfa-40
  DW_CFA_advance_loc: 4 to 0000000000001dfc
  DW_CFA_def_cfa_offset: 48
  DW_CFA_offset: r6 (rbp) at cfa-48
  DW_CFA_advance_loc: 1 to 0000000000001dfd
  DW_CFA_def_cfa_offset: 56
  DW_CFA_offset: r3 (rbx) at cfa-56
  DW_CFA_advance_loc: 18 to 0000000000001e0f
  DW_CFA_def_cfa_offset: 320
  DW_CFA_advance_loc2: 298 to 0000000000001f39
  DW_CFA_def_cfa_offset: 328
  DW_CFA_advance_loc: 18 to 0000000000001f4b
  DW_CFA_def_cfa_offset: 336
  DW_CFA_advance_loc: 16 to 0000000000001f5b
  DW_CFA_def_cfa_offset: 328
  DW_CFA_advance_loc: 1 to 0000000000001f5c
  DW_CFA_def_cfa_offset: 320
  DW_CFA_advance_loc1: 211 to 000000000000202f
  DW_CFA_remember_state
  DW_CFA_def_cfa_offset: 56
  DW_CFA_advance_loc: 1 to 0000000000002030
  DW_CFA_def_cfa_offset: 48
  DW_CFA_advance_loc: 1 to 0000000000002031
  DW_CFA_def_cfa_offset: 40
  DW_CFA_advance_loc: 2 to 0000000000002033
  DW_CFA_def_cfa_offset: 32
  DW_CFA_advance_loc: 2 to 0000000000002035
  DW_CFA_def_cfa_offset: 24
  DW_CFA_advance_loc: 2 to 0000000000002037
  DW_CFA_def_cfa_offset: 16
  DW_CFA_advance_loc: 2 to 0000000000002039
  DW_CFA_def_cfa_offset: 8
  DW_CFA_advance_loc: 1 to 000000000000203a
  DW_CFA_restore_state
  DW_CFA_nop
  DW_CFA_nop

00000338 000000000000002c 0000033c FDE cie=00000000 pc=0000000000002040..00000000000020d1
  DW_CFA_advance_loc: 1 to 0000000000002041
  DW_CFA_def_cfa_offset: 16
  DW_CFA_offset: r6 (rbp) at cfa-16
  DW_CFA_advance_loc: 1 to 0000000000002042
  DW_CFA_def_cfa_offset: 24
  DW_CFA_offset: r3 (rbx) at cfa-24
  DW_CFA_advance_loc: 18 to 0000000000002054
  DW_CFA_def_cfa_offset: 112
  DW_CFA_advance_loc1: 117 to 00000000000020c9
  DW_CFA_remember_state
  DW_CFA_def_cfa_offset: 24
  DW_CFA_advance_loc: 1 to 00000000000020ca
  DW_CFA_def_cfa_offset: 16
  DW_CFA_advance_loc: 1 to 00000000000020cb
  DW_CFA_def_cfa_offset: 8
  DW_CFA_advance_loc: 1 to 00000000000020cc
  DW_CFA_restore_state
  DW_CFA_nop
  DW_CFA_nop
  DW_CFA_nop
  DW_CFA_nop
  DW_CFA_nop

00000368 ZERO terminator


